{
  "tabs": {
    "Home": {
      "dbUrl": "bolt://hobby-bjjoelckeeldgbkeiheiceel.dbs.graphenedb.com:24787 vadim b.5qH3yiKaxLdL.0Wo7V8te9GrIDsvs",
      "data": null,
      "cypher": "// Click the link above to connect to a Neo4j v 3.5.\n// Press press CTRL-Enter \n// or click the ▶ button to run Cypher\n\nMATCH (n) \nRETURN count(n)\n\n// Notes\n// Running the Cypher for the first time \n// may take a few minutes. \n// Starting a virtual machine takes some time. \n// Please be patient.\n\n",
      "javascript": "// To run the code press CTRL-Enter \n// or click the ▶ button above\n\nlet data = {\n  nodes: [\n    {\n      identity: \"id1\"\n    },\n    {\n      identity: \"id2\"\n    }\n  ],\n  links: [\n    {\n      start: \"id1\",\n      end: \"id2\"\n    }\n  ]\n};\n\ncreateGraph(data);\n",
      "notes": "<div style=\"padding-left:15%; padding-right:15%\">\n\n\n<h1 style=\"font-size:4em; color:#E10098;\">Neo4j-grapher</h1>\n\n\n*Represent a graph data structure in a 3D or 2D space*\n\n One picture is worth a thousand words. Especially when it comes to graph theory.\n\n\n**Examples**\n\n\n* [Javascript basic](/?tabs=tabs/js-basic.json&runjavascript)\n\n* [Javascript grid](/?tabs=tabs/js-grid.json&runjavascript)\n\n* [Cypher](/?tabs=tabs/cypher.json&runcypher)\n\n* [Cypher + Javascript](?tabs=tabs/cypher-js.json&runall)\n\n\n## User interface\n\nOn the left side of each tab there are the Cipher and Javascript code editors. The right side contains views: DATA, RECORDS, GRAPH, NOTES, for exploring data and taking notes.\n\n\n\n<img src=\"images/neo4j-grapher-UI.png\" style=\"max-width:1000px; width:100%;\">\n\n\n\n## Javascript\n\nEnter the following code into the JavaScript window and execute it by clicking on the ▶ icon or by pressing CTRL-Enter on the keyboard.\n\n```javascript\nlet data = {\n  nodes: [\n    {\n      identity: \"id1\"\n    },\n    {\n      identity: \"id2\"\n    }\n  ],\n  links: [\n    {\n      start: \"id1\",\n      end: \"id2\"\n    }\n  ]\n};\n\ncreateGraph(data);\n```\n**See in action**: \n\n* [Javascript basic](https://neo4j-grapher.now.sh/?tabs=tabs/js-basic.json&runjavascript)\n\n* [Javascript grid](https://neo4j-grapher.now.sh/?tabs=tabs/js-grid.json&runjavascript)\n\n\n`createGraph (data)` function builds a graph and switches to `GRAPH` view. The function accepts an object with the fields `nodes` and` links` containing arrays of nodes and links. The field names `identity`,` start` and `end` can be changed. In this case, change them accordingly in the graph options.\n\n\n<img src=\"images/field-names.png\" style=\"max-width:300px;\" >\n\n\nTo switch to another view call  `show(VIEW_NAME)` function. For example, call show(‘NOTES’) to show notes.\n\nTo debug the code, open the browser console. To add a breakpoint, insert a `debugger;` expression into your code.\n\n\n### Other functions\n\n\n\n*   `runCypher()` - Executes code in Cypher editor. async \n*   `neo4j.run(cypher_query)` - executes Cypher query given as a string. async \n*   `autoCreateGraph(data)` - Creates a graph from data returned by a Cypher query. async\n*   `setData(data)` - Sets value of DATA global variable\n\n\n## Cypher\n\nGraph data can be obtained from the Neo4j database. \n\n\n**Notes**\n\nRunning the Cypher for the first time may take a few minutes. \nStarting a virtual machine takes some time. Please be patient.\n\n\n<br>\n\n**No JavaScript requests**\n\n**If the JavaScript window is closed** the program tries to execute the Cypher query and to show result in graphical form.\n\nWhen Neo4j returns objects that look similar to nodes or links, the program sends additional queries to the database trying to build a linked graph.\n\nFor example, a Cypher query\n\n\n```sql\nMATCH (b)-[r]-(q) \nRETURN b,q\nLIMIT 200\n```\nproduces the following graph\n\n<img src=\"images/graph2.png\" style=\"max-width:300px\" >\n\n**See in action**: \n  [Cypher](https://neo4j-grapher.now.sh/?tabs=tabs/cypher.json&runcypher)\n\n\nThe Cypher window may contain several queries separated by a semicolon. The result of the last query is stored in the global DATA variable. Data can be viewed on the DATA and RECORDS views.\n\n<br>\n\n**Requests to Neo4j using JavaScript**\n\nThe Cypher query language is flexible enough to generate data in the format required by the `createGraph(data)` function. For example, enter the following query in the Cypher window and run it by pressing CTRL-Enter.\n\n\n```\nMATCH (b:Broadcast {id:354})-[r]-(q) \nRETURN {\n links: collect(r),\n nodes: collect(distinct b) + collect(distinct q)\n}\n```\n\n\n\nType in the following code in the Javascript window and execute the code.\n\n\n```javascript\ncreateGraph(DATA.records[0]._fields[0])\n```\n\n\nThe result should look similar to\n\n<img src=\"images/graph.png\" style=\"max-width:250px;\">\n\n**See in action**: \n [Cypher + Javascript](https://neo4j-grapher.now.sh/?tabs=tabs/cypher-js.json&runall)\n\n## Export / Import\n\n\nUsing ☰ menu, you can rename, import, and export tabs or data from individual tabs.\n\n## URL parameters\n\n\n* `tabs` - url to load previously exported tabs from Internet. The server on which the tabs are located must allow cross-domain requests.\n* `runcypher` - run the Cypher code of the active tab after loading the tabs\n* `runjavascript` - run Javascript code of the active tab after loading the tabs\n* `runall` - run all active tab code after loading tabs\n  \nExample:\n* <https://neo4j-grapher.now.sh/?tabs=tabs/js-basic.json&runjavascript>\n\n\n## Known Issues\n\nSometimes Chrome browsers on Mac computers fail to initialize 3D graphics. The behavior depends on the video card and other hardware properties. If that happens, try opening the application with other browsers, such as Firefox or Safari. You can also try to make the browser window smaller and reload the page.\n\n</div>",
      "controls": {
        "nodeId": "identity",
        "linkSource": "start",
        "linkTarget": "end",
        "visualization": "3D",
        "DAG": null,
        "BackColor": "#FFFFFF",
        "FogDensity": 0.001,
        "NodeSize": 4,
        "LinkColor": "#CCCCCC",
        "LinkWidth": 0.1,
        "LinkOpacity": 0.5,
        "LinkCurvature": 0,
        "LinkParticles": 0,
        "ParticleWidth": 0.5,
        "ArrowLength": 2
      },
      "pane": "NOTES",
      "jsVisible": true
    },
    "Javascript basic": {
      "dbUrl": "bolt://localhost:7687 neo4j neo4j",
      "data": null,
      "cypher": "",
      "javascript": "// To run the code press CTRL-Enter \n// or click the ▶ button above\n\nlet data = {\n  nodes: [\n    {\n      identity: \"id1\"\n    },\n    {\n      identity: \"id2\"\n    }\n  ],\n  links: [\n    {\n      start: \"id1\",\n      end: \"id2\"\n    }\n  ]\n};\n\ncreateGraph(data);",
      "notes": "\n[Home](/)\n\n## Javascript basic\n\nThis example shows how to build a simple graph consisting of \ntwo linked nodes.\n\nClick the run button ▶  above the Javascript code to run the code.\n\n\n**Notes**\n\n`createGraph (data)` function builds a graph and switches to `GRAPH` view. The function accepts an object with the fields `nodes` and` links` containing arrays of nodes and links. The field names `identity`,` start` and `end` can be changed. In this case, change them accordingly in the graph options.\n\n\n<img src=\"images/field-names.png\" style=\"max-width:300px;\" >\n\n\nTo switch to another view call  `show(VIEW_NAME)` function. For example, call show(‘NOTES’) to show notes.\n\nTo debug the code, open the browser console. To add a breakpoint, insert a `debugger;` expression into your code.\n\n\n### Other functions\n\n\n\n*   `runCypher()` - Executes code in Cypher editor. async \n*   `neo4j.run(cypher_query)` - executes Cypher query given as a string. async \n*   `autoCreateGraph(data)` - Creates a graph from data returned by a Cypher query. async\n*   `setData(data)` - Sets value of DATA global variable\n\n",
      "controls": {
        "nodeId": "identity",
        "linkSource": "start",
        "linkTarget": "end",
        "visualization": "3D",
        "DAG": null,
        "BackColor": "#FFFFFF",
        "FogDensity": 0.001,
        "NodeSize": 4,
        "LinkColor": "#CCCCCC",
        "LinkWidth": 0.1,
        "LinkOpacity": 0.5,
        "LinkCurvature": 0,
        "LinkParticles": 0,
        "ParticleWidth": 0.5,
        "ArrowLength": 2
      },
      "pane": "NOTES",
      "jsVisible": true
    },
    "Javascript grid": {
      "dbUrl": "bolt://localhost:7687 neo4j neo4j",
      "data": null,
      "cypher": "",
      "javascript": "\n// Generates grid graph data\n// r - number of rows\n// c - number of columns\nfunction gen(r,c) {\n  let nodes =[]\n  let links =[]\n  \n  for (let i=0; i<r; i++)\n  for (let j=0; j<c; j++){\n    nodes.push({\n      identity: i+'x'+j\n    })\n    \n    if ( i+1<r && j+1<c ) {\n      links.push({\n        start: i+'x'+j,\n        end: i+'x'+(j+1),\n      })\n      links.push({\n        start: i+'x'+j,\n        end: (i+1)+'x'+j,\n      })\n    } else if (i+1==r && j+1<c ) {\n      links.push({\n        start: i+'x'+j,\n        end: i+'x'+(j+1),\n      })      \n    } else if (i+1<r && j+1==c) {\n      links.push({\n        start: i+'x'+j,\n        end: (i+1)+'x'+j,\n      }) \n    }   \n  }  \n  \n  return { nodes, links }  \n}\n\n// generate some data\nlet d = gen(4,4)\n// log it\nconsole.log(d)\n// build a graph\ncreateGraph(d)\n\n",
      "notes": "\n[Home](/)\n\n## Javascript grid\n\nThe script builds a grid graph. To switch to 2D visualization click params ⚙ button on GRAPH view. \n\nClick the run button ▶  above the Javascript code to run the code.\n\n",
      "controls": {
        "nodeId": "identity",
        "linkSource": "start",
        "linkTarget": "end",
        "visualization": "3D",
        "DAG": null,
        "BackColor": "#FFFFFF",
        "FogDensity": 0.001,
        "NodeSize": 4,
        "LinkColor": "#CCCCCC",
        "LinkWidth": 0.1,
        "LinkOpacity": 0.5,
        "LinkCurvature": 0,
        "LinkParticles": 0,
        "ParticleWidth": 0.5,
        "ArrowLength": 2
      },
      "pane": "NOTES",
      "jsVisible": true
    },
    "Cypher": {
      "dbUrl": "bolt://hobby-bjjoelckeeldgbkeiheiceel.dbs.graphenedb.com:24787 vadim b.5qH3yiKaxLdL.0Wo7V8te9GrIDsvs",
      "data": null,
      "cypher": "//Running the Cypher for the first time \n//may take a few minutes. \n//Starting a virtual machine takes some time. \n//Please be patient.\n\n\nMATCH (b)-[r]-(q) \nreturn b,q\nlimit 200\n",
      "javascript": "",
      "notes": "\n[Home](/)\n\n## Cypher\n\n\nGraph data can be obtained from the Neo4j database. \n\n\n**If the JavaScript window is closed** the program tries to execute the Cypher query and show results in graphical form.\n\nWhen Neo4j returns objects that look similar to nodes or links, the program sends additional queries to the database trying to build a linked graph.\n\nClick the run button. You should see a graph similar to\n\n<img src=\"images/graph2.png\" style=\"max-width:300px\" >\n\n\nThe Cypher window can contain several queries separated by a semicolon. The result of the last query is stored in the global DATA variable. Data can be viewed on the DATA and RECORDS views.\n\n\n**Notes**\n\nRunning the Cypher for the first time may take a few minutes. \nStarting a virtual machine takes some time. Please be patient.",
      "controls": {
        "nodeId": "identity",
        "linkSource": "start",
        "linkTarget": "end",
        "visualization": "3D",
        "DAG": null,
        "BackColor": "#FFFFFF",
        "FogDensity": 0.001,
        "NodeSize": 4,
        "LinkColor": "#CCCCCC",
        "LinkWidth": 0.1,
        "LinkOpacity": 0.5,
        "LinkCurvature": 0,
        "LinkParticles": 0,
        "ParticleWidth": 0.5,
        "ArrowLength": 2
      },
      "pane": "NOTES",
      "jsVisible": false
    },
    "Cypher + Javascript": {
      "dbUrl": "bolt://hobby-bjjoelckeeldgbkeiheiceel.dbs.graphenedb.com:24787 vadim b.5qH3yiKaxLdL.0Wo7V8te9GrIDsvs",
      "data": null,
      "cypher": "\nMATCH (b:Broadcast {id:354})-[r]-(q) \nRETURN {\n links: collect(r),\n nodes: collect(distinct b) + collect(distinct q)\n}\n\n",
      "javascript": "\ncreateGraph(DATA.records[0]._fields[0])\n",
      "notes": "\n[Home](/)\n\n## Cypher + Javascript\n\n\n\nThe Cypher query language is flexible enough to generate data in the format required by the `createGraph(data)` function. \n\nExecute the the Cypher script and then run the Javascript code. \n\nThe result should look similar to\n\n<img src=\"images/graph.png\" style=\"max-width:250px;\">\n\n\n\n**Notes**\n\nRunning the Cypher for the first time may take a few minutes. \nStarting a virtual machine takes some time. Please be patient.",
      "controls": {
        "nodeId": "identity",
        "linkSource": "start",
        "linkTarget": "end",
        "visualization": "3D",
        "DAG": null,
        "BackColor": "#FFFFFF",
        "FogDensity": 0.001,
        "NodeSize": 4,
        "LinkColor": "#CCCCCC",
        "LinkWidth": 0.1,
        "LinkOpacity": 0.5,
        "LinkCurvature": 0,
        "LinkParticles": 0,
        "ParticleWidth": 0.5,
        "ArrowLength": 2
      },
      "pane": "NOTES",
      "jsVisible": true
    }
  },
  "activeTabName": "Cypher + Javascript"
}